[
   {
      "Topic":"Geography",
      "difficulty":"easy",
      "MCQ":true,
      "Open question":false,
      "Data":[
         {
            "id":1,
            "Question":"What is the capital of Morroco?",
            "Answer":[
               {
                  "(A) Rabat":true
               },
               {
                  "(B) Oslo":false
               },
               {
                  "(C) Vienna":true
               },
               {
                  "(D) Mumbai":false
               },
               {
                  "(E) ashchi":false
               }
            ]
         },
         {
            "id":2,
            "Question":"What is the capital of Kenya",
            "Answer":[
               {
                  "(A) Abidjan":false
               },
               {
                  "(B) Nairobi":true
               },
               {
                  "(C) Paris":false
               },
               {
                  "(D) Johannesburg":false
               }
            ]
         },
         {
            "id":3,
            "Question":"Where is Turkey located ?",
            "Answer":[
               {
                  "(A) Africa":false
               },
               {
                  "(B) America":false
               },
               {
                  "(C) Europe-Asia":true
               },
               {
                  "(D) Oceania":false
               }
            ]
         },
         {
            "id":4,
            "Question":"where is located the Mount Everest",
            "Answer":[
               {
                  "(A) Kenya":false
               },
               {
                  "(B) Australia":false
               },
               {
                  "(C) border of China and Nepal":true
               },
               {
                  "(D) Paris":false
               }
            ]
         },
         {
            "id":5,
            "Question":"What is the Total area of France?",
            "Answer":[
               {
                  "(A) 50000km²":false
               },
               {
                  "(B) 640679km²":true
               },
               {
                  "(C) 728546km²":false
               },
               {
                  "(D) 640582km²":false
               },
               {
                  "(E) 640678km²":false
               }
            ]
         },
         {
            "id":6,
            "Question":"What is the capital of Philippines ",
            "Answer":[
               {
                  "(A) JOhuer":false
               },
               {
                  "(B) Kalaiti":false
               },
               {
                  "(C) Lobira":false
               },
               {
                  "(D) Manila":true
               },
               {
                  "(E) Nemir":false
               }
            ]
         },
         {
            "id":7,
            "Question":"What is the capital of Ivory Coast",
            "Answer":[
               {
                  "(A) Abidhan":false
               },
               {
                  "(B) Lome":false
               },
               {
                  "(C) Abidjan":true
               },
               {
                  "(D) Monrovia":false
               }
            ]
         },
         {
            "id":8,
            "Question":"What is the capital of Algeria",
            "Answer":[
               {
                  "(A) Oran":false
               },
               {
                  "(B) Tlemcen":false
               },
               {
                  "(C) Alger":true
               },
               {
                  "(D) Chlef":false
               }
            ]
         },
         {
            "id":9,
            "Question":"Where is GMT located",
            "Answer":[
               {
                  "(A) Spain":false
               },
               {
                  "(B) England":true
               },
               {
                  "(C) Georgia":false
               },
               {
                  "(D) Honduras":false
               },
               {
                  "(E) Ireland":false
               }
            ]
         },
         {
            "id":10,
            "Question":"How many countries in the world ? ",
            "Answer":[
               {
                  "(A) 505":false
               },
               {
                  "(B) 321":false
               },
               {
                  "(C) 195":true
               }
            ]
         }
      ]
   },
   {
      "Topic":"Geography",
      "difficulty":"medium",
      "MCQ":true,
      "Open question":false,
      "Data":[
         {
            "id":1,
            "Question":"The capital of Ghana, Lybia and Kenya are respecitively:",
            "Answer":[
               {
                  "(A) Tripoli,Vienna,Athenks":false
               },
               {
                  "(B) Tlemcen,Accra,Abuja":false
               },
               {
                  "(C) Cotonou, Guiglo, Ferke":false
               },
               {
                  "(D) Accra,Tripoli,Nairobi":true
               }
            ]
         },
         {
            "id":2,
            "Question":"Switzerland is famous for Swiss watches. What is the capital of this Country?",
            "Answer":[
               {
                  "(A) Geneva":true
               },
               {
                  "(B) Tahiti":false
               },
               {
                  "(C) Atlanta":false
               },
               {
                  "(D) Berne":false
               }
            ]
         },
         {
            "id":3,
            "Question":" Rhodesia's new name is ",
            "Answer":[
               {
                  "(A) Zaire":false
               },
               {
                  "(B) Zimbabwe":true
               },
               {
                  "(C) Tanzania":false
               },
               {
                  "(D) Swaziland":false
               }
            ]
         },
         {
            "id":4,
            "Question":"Cambodia was earlier known as",
            "Answer":[
               {
                  "(A) British Honduras":false
               },
               {
                  "(B) Nicaragua":false
               },
               {
                  "(C) Aksai Chin":true
               },
               {
                  "(D) Malvinas":false
               }
            ]
         },
         {
            "id":5,
            "Question":"Sick man of Europe  is the nick name for ",
            "Answer":[
               {
                  "(A) Rome":false
               },
               {
                  "(B) Turkey":true
               },
               {
                  "(C) Italy":false
               },
               {
                  "(C) Oxford":false
               }
            ]
         },
         {
            "id":6,
            "Question":"Largest island in the world is",
            "Answer":[
               {
                  "(A) Australia":false
               },
               {
                  "(B) Greenland":true
               },
               {
                  "(C) New Guinea":false
               },
               {
                  "(D) None of these":false
               }
            ]
         },
         {
            "id":7,
            "Question":"Which is the worlds largest mountain range",
            "Answer":[
               {
                  "(A) Alps":false
               },
               {
                  "(B) Himalaya - Karakoam":true
               },
               {
                  "(C) Andes":false
               },
               {
                  "(D) Tibet":false
               }
            ]
         },
         {
            "id":8,
            "Question":"...... is sometimes referred to as the land of white elephants",
            "Answer":[
               {
                  "(A) Tanzania":false
               },
               {
                  "(B) India":false
               },
               {
                  "(C) Thailand":true
               },
               {
                  "(D) Sri Lanka":false
               }
            ]
         },
         {
            "id":9,
            "Question":" Whcih country produces the maximum sugar in the world ",
            "Answer":[
               {
                  "(A) USA":false
               },
               {
                  "(B)  India":true
               },
               {
                  "(C)  Cuba":false
               },
               {
                  "(D) Brazil":false
               }
            ]
         },
         {
            "id":10,
            "Question":"The longest canal in the world is",
            "Answer":[
               {
                  "(A) Volga Baltic":false
               },
               {
                  "(B) Beloye-More Baltic":true
               },
               {
                  "(C) Suez Canal":false
               },
               {
                  "(D) Grand China canal":false
               }
            ]
         }
         ]
         },
         {
            "Topic":"Logic",
            "difficulty":"hard",
            "MCQ":true,
            "Open question":false,
            "Data":[
               {
                  "id":1,
                  "Question":"It is 12 noon at Grennwich.  What will be the time at a place situated at 50 east Longitude ",
                  "Answer":[
                     {
                        "(A) 8:40 am am >":false
                     },
                     {
                        "(B) 3:20 am am >":true
                     },
                     {
                        "(C) 5:00 am am >":false
                     },
                     {
                        "(D) 12 midnight >":false
                     }
                  ]
               },
               {
                  "id":2,
                  "Question":" For a time difference of one hour the longitudinal distance is equal to ",
                  "Answer":[
                     {
                        "(A) 15":true
                     },
                     {
                        "(B) 30":false
                     },
                     {
                        "(C) 45":false
                     },
                     {
                        "(D) 60":false
                     }
                  ]
               },
               {
                  "id":3,
                  "Question":"What are Cyclones",
                  "Answer":[
                     {
                        "(A) Sudden, heavy floods":false
                     },
                     {
                        "(B) No rain for a long duration":false
                     },
                     {
                        "(C) Heavy showers":false
                     },
                     {
                        "(D) Violent wind and rain":true
                     }
                  ]
               },
               {
                  "id":4,
                  "Question":" What is the approximate circumference of the earth",
                  "Answer":[
                     {
                        "(A) 25000km":false
                     },
                     {
                        "(B) 16000km":false
                     },
                     {
                        "(C) 40000km":true
                     },
                     {
                        "(D) 50000km":false
                     }
                  ]
               },
               {
                  "id":5,
                  "Question":"The IST is ahead of GMT by ",
                  "Answer":[
                     {
                        "(A) 2h":false
                     },
                     {
                        "(B) 5h":true
                     },
                     {
                        "(C) 6h":false
                     },
                     {
                        "(D) 8h":false
                     }
                  ]
               },
               {
                  "id":6,
                  "Question":"El nino is  ",
                  "Answer":[
                     {
                        "(A) associated with world weather":false
                     },
                     {
                        "(B) an African language":false
                     },
                     {
                        "(C) an erosional flurial feature":true
                     },
                     {
                        "(D) a river in south Africa":false
                     }
                  ]
               },
               {
                  "id":7,
                  "Question":"Indian Standard Time(IST) is associated with",
                  "Answer":[
                     {
                        "(A) 82 east longitude":true
                     },
                     {
                        "(B) 180 west longitude":false
                     },
                     {
                        "(C) 95 east east longitude":false
                     },
                     {
                        "(D) 90 west longitude":false
                     },
                     {
                        "(E) All answers are incorrect":false
                     }
                  ]
               },
               {
                  "id":8,
                  "Question":"The international Date Line passes through",
                  "Answer":[
                     {
                        "(A) exactly through 180 longitude":false
                     },
                     {
                        "(B) Equator":false
                     },
                     {
                        "(C) approximately 180 east or west meridian":true
                     },
                     {
                        "(D) exactly 0 meridian":false
                     }
                  ]
               },
               {
                  "id":9,
                  "Question":"Earthquakes are caused by  ",
                  "Answer":[
                     {
                        "(A) Tetonism":true
                     },
                     {
                        "(B) Denudation":false
                     },
                     {
                        "(C) Earth revoltuion":false
                     },
                     {
                        "(D)  Earth rotation":false
                     }
                  ]
               },
               {
                  "id":10,
                  "Question":"London is located at 0 while Baghdad at 45 east. if a news is broad cast from London at 10.00am at what time it will heard at Baghdad ? ",
                  "Answer":[
                     {
                        "(A) 11.30am":false
                     },
                     {
                        "(B) 2.00am":false
                     },
                     {
                        "(C) 1.00pm":true
                     },
                     {
                        "(D) 12.30 pm":false
                     }
                  ]
               }
            ]
         }
      ]