[
   {
      "Topic":"Logic",
      "difficulty":"easy",
      "MCQ":true,
      "Open question":false,
      "Data":[
         {
            "id":1,
            "Question":"1 ; 2 ; 3 ; 4 ; ?",
            "Answer":[
               {
                  "(A) 3":false
               },
               {
                  "(B) 4":false
               },
               {
                  "(C) 5":true
               },
               {
                  "(D) 6":false
               },
               {
                  "(E) 7":false
               }
            ]
         },
         {
            "id":2,
            "Question":"0 ; 1 ; 3 ; 6 ; ?",
            "Answer":[
               {
                  "(A) 9":false
               },
               {
                  "(B) 10":true
               },
               {
                  "(C) 11":false
               },
               {
                  "(D) 12":false
               },
               {
                  "(E) 13":false
               }
            ]
         },
         {
            "id":3,
            "Question":"1 ; 0 ; 2 ; 1 ; 3 ; 2 ; 4 ; ?",
            "Answer":[
               {
                  "(A) 1":false
               },
               {
                  "(B) 2":false
               },
               {
                  "(C) 3":true
               },
               {
                  "(D) 4":false
               },
               {
                  "(E) 5":false
               }
            ]
         },
         {
            "id":4,
            "Question":"1 ; 2 ; 4 ; 8 ; ?",
            "Answer":[
               {
                  "(A) 12":false
               },
               {
                  "(B) 13":false
               },
               {
                  "(C) 14":false
               },
               {
                  "(D) 15":false
               },
               {
                  "(E) 16":true
               }
            ]
         },
         {
            "id":5,
            "Question":"(1 * 10) ; (2 * 9) ; (3 * 8) ; (4 * ? )",
            "Answer":[
               {
                  "(A) 5":false
               },
               {
                  "(B) 6":false
               },
               {
                  "(C) 7":true
               },
               {
                  "(D) 8":false
               },
               {
                  "(E) 9":false
               }
            ]
         },
         {
            "id":6,
            "Question":"(a * 1) ; (b * 1) ; (c * 2) ; (e * 3) ; (h * 5) ; ( ? * 8)",
            "Answer":[
               {
                  "(A) J":false
               },
               {
                  "(B) K":false
               },
               {
                  "(C) L":false
               },
               {
                  "(D) M":true
               },
               {
                  "(E) N":false
               }
            ]
         },
         {
            "id":7,
            "Question":"1 ; 2 ; 3 ; 5 ; 7 ; 11 ; 13 ; ?",
            "Answer":[
               {
                  "(A) 15":false
               },
               {
                  "(B) 16":false
               },
               {
                  "(C) 17":true
               },
               {
                  "(D) 18":false
               },
               {
                  "(E) 19":false
               }
            ]
         },
         {
            "id":8,
            "Question":"Chase away the Intruder...",
            "Answer":[
               {
                  "(A) 27":false
               },
               {
                  "(B) 45":false
               },
               {
                  "(C) 82":true
               },
               {
                  "(D) 108":false
               },
               {
                  "(E) 909":false
               }
            ]
         },
         {
            "id":9,
            "Question":"A ; b ; e ; c ; i ; d ; o ;",
            "Answer":[
               {
                  "(A) E":false
               },
               {
                  "(B) F":true
               },
               {
                  "(C) G":false
               },
               {
                  "(D) H":false
               },
               {
                  "(E) I":false
               }
            ]
         },
         {
            "id":10,
            "Question":"1 ; 20 ; 300 ; ?",
            "Answer":[
               {
                  "(A) 500":false
               },
               {
                  "(B) 321":false
               },
               {
                  "(C) 4000":true
               },
               {
                  "(D) 600":false
               },
               {
                  "(E) 444":false
               }
            ]
         }
      ]
   },
   {
      "Topic":"Logic",
      "difficulty":"medium",
      "MCQ":true,
      "Open question":false,
      "Data":[
         {
            "id":1,
            "Question":"In a darkroom and you have one match left, which do you light first, the newspaper, the candle or the lamp?",
            "Answer":[
               {
                  "(A) The newspaper":false
               },
               {
                  "(B) The lamp":false
               },
               {
                  "(C) The Candle":false
               },
               {
                  "(D) The match":true
               }
            ]
         },
         {
            "id":2,
            "Question":"Which word is the odd one out: First- Second- Third- Forth- Fifth- Sixth- Seventh- Eighth",
            "Answer":[
               {
                  "(A) Second":false
               },
               {
                  "(B) Third":false
               },
               {
                  "(C) Forth":true
               },
               {
                  "(D) Seventh":false
               }
            ]
         },
         {
            "id":3,
            "Question":"If a peacock can lay one egg on day 1, and lay two eggs on day 2; Logically how many eggs do you think the peacock can lay on day 3?",
            "Answer":[
               {
                  "(A) 1":false
               },
               {
                  "(B) 2":false
               },
               {
                  "(C) 3":false
               },
               {
                  "(D) 0":true
               }
            ]
         },
         {
            "id":4,
            "Question":"In the final stretch of a marathon, you quickly ran by the person who is in second place, what place are you in?",
            "Answer":[
               {
                  "(A) 1st":false
               },
               {
                  "(B) 2nd":true
               },
               {
                  "(C) 3rd":false
               }
            ]
         },
         {
            "id":5,
            "Question":"A grandfather, a father and two sons went hunting, everyone shot a duck, how many ducks did they bring home? ",
            "Answer":[
               {
                  "(A) 2":false
               },
               {
                  "(B) 3":true
               },
               {
                  "(C) 4":false
               }
            ]
         },
         {
            "id":6,
            "Question":"Who's bigger? Mr. Bigger, Mrs. Bigger or their baby?)",
            "Answer":[
               {
                  "(A) Mr. Bigger":false
               },
               {
                  "(B) Mrs. Bigger":false
               },
               {
                  "(C) Their baby":true
               }
            ]
         },
         {
            "id":7,
            "Question":"A farmer has 17 sheep and all but 9 die. How many are left?",
            "Answer":[
               {
                  "(A) 0":false
               },
               {
                  "(B) 8":false
               },
               {
                  "(C) 9":true
               }
            ]
         },
         {
            "id":8,
            "Question":"How many of each kind of animal did Moses take on the ark?",
            "Answer":[
               {
                  "(A) 0":true
               },
               {
                  "(B) 2":false
               },
               {
                  "(C) 3":false
               },
               {
                  "(D) 4":false
               }
            ]
         },
         {
            "id":9,
            "Question":"3 birds sitting on a tree branch, a hunter shoots and miss, how many birds left on the tree branch? ",
            "Answer":[
               {
                  "(A) 0":true
               },
               {
                  "(B)  1":false
               },
               {
                  "(C)  2":false
               },
               {
                  "(D) 3":false
               }
            ]
         },
         {
            "id":10,
            "Question":"An Eskimo is looking out of his window at his home in Alaska. He saw a huge bear walking towards his house. What color is the bear?",
            "Answer":[
               {
                  "(A) Brown":false
               },
               {
                  "(B) Black":false
               },
               {
                  "(C) Red":false
               },
               {
                  "(D) White":true
               }
            ]
         }
         ]
         },
         {
            "Topic":"Logic",
            "difficulty":"hard",
            "MCQ":true,
            "Open question":false,
            "Data":[
               {
                  "id":1,
                  "Question":"Some of the snails are mountains. All mountains adore cats. Thus, all snails adore cats ",
                  "Answer":[
                     {
                        "(A) Correct":false
                     },
                     {
                        "(B) Incorrect":true
                     }
                  ]
               },
               {
                  "id":2,
                  "Question":"All alligators can fly. All ogres are alligators. Thus, all ogres can fly. ",
                  "Answer":[
                     {
                        "(A) Correct":true
                     },
                     {
                        "(B) Incorrect":false
                     }
                  ]
               },
               {
                  "id":3,
                  "Question":"Some cabbage heads are locomotives. Some locomotives can play the piano. Thus, some cabbage heads can play the piano",
                  "Answer":[
                     {
                        "(A) Correct":false
                     },
                     {
                        "(B) Incorrect":true
                     }
                  ]
               },
               {
                  "id":4,
                  "Question":"Two glades can never be alike. All pines and firs are identical. Thus, pines and firs cannot be two glades. ",
                  "Answer":[
                     {
                        "(A) Correct":true
                     },
                     {
                        "(B) Incorrect":false
                     }
                  ]
               },
               {
                  "id":5,
                  "Question":"Men with red noses are prohibited to become presidents. All men have red noses. Thus, no man is allowed to become a president.  ",
                  "Answer":[
                     {
                        "(A) Correct":true
                     },
                     {
                        "(B) Incorrect":false
                     }
                  ]
               },
               {
                  "id":6,
                  "Question":"All birds collect paintings. Some painting collectors are kept in birdcages. Thus, some crows are kept in birdcages ",
                  "Answer":[
                     {
                        "(A) Correct":false
                     },
                     {
                        "(B) Incorrect":true
                     }
                  ]
               },
               {
                  "id":7,
                  "Question":"Bad people cheat or steal. Jane is a good girl.",
                  "Answer":[
                     {
                        "(A) Jane Cheats":false
                     },
                     {
                        "(B) Jane steals":false
                     },
                     {
                        "(C) Jane does not steal":true
                     },
                     {
                        "(D) Jane cheats and steals":false
                     },
                     {
                        "(E) All answers are incorrect":false
                     }
                  ]
               },
               {
                  "id":8,
                  "Question":"All sparrows can't fly. All sparrows have legs, though.",
                  "Answer":[
                     {
                        "(A) Sparrows cant fly without legs":false
                     },
                     {
                        "(B) Some sparrows dont have legs":false
                     },
                     {
                        "(C) All sparrows that have legs cant fly":true
                     },
                     {
                        "(D) Sparrows cant fly because they have legs":false
                     },
                     {
                        "(E) Sparrows cant fly and they dont have legs":false
                     },
                     {
                        "(F) All answers are incorrect":false
                     }
                  ]
               },
               {
                  "id":9,
                  "Question":"Some men are European. Europeans have three legs.  ",
                  "Answer":[
                     {
                        "(A) Men with two legs are not European":true
                     },
                     {
                        "(B) Europeans, who are men, may have three legs":false
                     },
                     {
                        "(C) Europeans with two legs can be men":false
                     },
                     {
                        "(D)  There are no non-European men with three legs":false
                     },
                     {
                        "(E)  Men have three legs because they're European":false
                     },
                     {
                        "(F)  All answers are incorrect":false
                     }
                  ]
               },
               {
                  "id":10,
                  "Question":"Flowers are green beasts. Flowers drink vodka ",
                  "Answer":[
                     {
                        "(A) All green beasts drink vodka":false
                     },
                     {
                        "(B) All green beasts are flowers":false
                     },
                     {
                        "(C) Some green beasts drink vodka":true
                     },
                     {
                        "(D) Green beasts dont drink vodka":false
                     },
                     {
                        "(E) Green beasts are not flowers":false
                     },
                     {
                        "(F) All answers are incorrect":false
                     }
                  ]
               }
            ]
         }
      ]
   
